com\mobile\dao\test\ElementDaoImpl.class
com\mobile\model\test\Test1.class
com\mobile\controller\test\HelloWorldRestController.class
com\mobile\services\test\MyTestService.class
com\mobile\dao\test\Test1Dao.class
com\mobile\model\test\Test2.class
com\mobile\model\test\Test3.class
com\mobile\model\test\User.class
com\mobile\util\test\HibernateUtil.class
com\mobile\services\test\UserService.class
com\mobile\controller\test\MyTestRestController.class
com\mobile\dao\test\ElementDao.class
com\mobile\StartPoint.class
com\mobile\services\test\UserServiceImpl.class
